homework3/Uygulama 2/waveform.vcd
$date
	Wed May 14 15:34:15 2025
$end
$version
	Icarus Verilog
$end
$timescale
	1ps
$end
$scope module testbench $end
$var wire 32 ! WriteData [31:0] $end
$var wire 1 " MemWrite $end
$var wire 32 # DataAdr [31:0] $end
$var reg 1 $ clk $end
$var reg 1 % reset $end
$scope module dut $end
$var wire 1 $ clk $end
$var wire 1 % reset $end
$var wire 32 & WriteData [31:0] $end
$var wire 32 ' ReadData [31:0] $end
$var wire 32 ( PC [31:0] $end
$var wire 1 " MemWrite $end
$var wire 32 ) Instr [31:0] $end
$var wire 32 * DataAdr [31:0] $end
$scope module u_dmem $end
$var wire 1 $ clk $end
$var wire 32 + rd [31:0] $end
$var wire 1 " we $end
$var wire 32 , wd [31:0] $end
$var wire 32 - a [31:0] $end
$upscope $end
$scope module u_imem $end
$var wire 32 . rd [31:0] $end
$var wire 32 / a [31:0] $end
$upscope $end
$scope module u_rvsingle $end
$var wire 32 0 Instr [31:0] $end
$var wire 32 1 ReadData [31:0] $end
$var wire 1 $ clk $end
$var wire 1 % reset $end
$var wire 1 2 Zero $end
$var wire 32 3 WriteData [31:0] $end
$var wire 2 4 ResultSrc [1:0] $end
$var wire 1 5 RegWrite $end
$var wire 1 6 PCSrc $end
$var wire 32 7 PC [31:0] $end
$var wire 1 " MemWrite $end
$var wire 1 8 Jump $end
$var wire 2 9 ImmSrc [1:0] $end
$var wire 1 : ALUSrc $end
$var wire 32 ; ALUResult [31:0] $end
$var wire 3 < ALUControl [2:0] $end
$scope module u_ctrl $end
$var wire 1 6 PCSrc $end
$var wire 3 = funct3 [2:0] $end
$var wire 1 > funct7b5 $end
$var wire 7 ? op [6:0] $end
$var wire 1 2 Zero $end
$var wire 2 @ ResultSrc [1:0] $end
$var wire 1 5 RegWrite $end
$var wire 1 " MemWrite $end
$var wire 1 8 Jump $end
$var wire 2 A ImmSrc [1:0] $end
$var wire 1 B Branch $end
$var wire 1 : ALUSrc $end
$var wire 2 C ALUOp [1:0] $end
$var wire 3 D ALUControl [2:0] $end
$scope module u_ad $end
$var wire 1 E RtypeSub $end
$var wire 3 F funct3 [2:0] $end
$var wire 1 > funct7b5 $end
$var wire 1 G opb5 $end
$var wire 2 H ALUOp [1:0] $end
$var reg 3 I ALUControl [2:0] $end
$upscope $end
$scope module u_md $end
$var wire 7 J op [6:0] $end
$var wire 2 K ResultSrc [1:0] $end
$var wire 1 5 RegWrite $end
$var wire 1 " MemWrite $end
$var wire 1 8 Jump $end
$var wire 2 L ImmSrc [1:0] $end
$var wire 1 B Branch $end
$var wire 1 : ALUSrc $end
$var wire 2 M ALUOp [1:0] $end
$var reg 11 N controls [10:0] $end
$upscope $end
$upscope $end
$scope module u_dp $end
$var wire 3 O ALUControl [2:0] $end
$var wire 1 : ALUSrc $end
$var wire 2 P ImmSrc [1:0] $end
$var wire 32 Q Instr [31:0] $end
$var wire 1 6 PCSrc $end
$var wire 32 R ReadData [31:0] $end
$var wire 1 5 RegWrite $end
$var wire 2 S ResultSrc [1:0] $end
$var wire 1 $ clk $end
$var wire 1 % reset $end
$var wire 1 2 Zero $end
$var wire 32 T WriteData [31:0] $end
$var wire 32 U SrcB [31:0] $end
$var wire 32 V SrcA [31:0] $end
$var wire 32 W Result [31:0] $end
$var wire 32 X PCTarget [31:0] $end
$var wire 32 Y PCPlus4 [31:0] $end
$var wire 32 Z PCNext [31:0] $end
$var wire 32 [ PC [31:0] $end
$var wire 32 \ ImmExt [31:0] $end
$var wire 32 ] ALUResult [31:0] $end
$scope module alu_inst $end
$var wire 3 ^ ctrl [2:0] $end
$var wire 1 2 zero $end
$var wire 32 _ b [31:0] $end
$var wire 32 ` a [31:0] $end
$var reg 32 a y [31:0] $end
$upscope $end
$scope module ext $end
$var wire 2 b immsrc [1:0] $end
$var wire 32 c instr [31:0] $end
$var reg 32 d immext [31:0] $end
$upscope $end
$scope module pcadd4 $end
$var wire 32 e b [31:0] $end
$var wire 32 f y [31:0] $end
$var wire 32 g a [31:0] $end
$upscope $end
$scope module pcaddbranch $end
$var wire 32 h b [31:0] $end
$var wire 32 i y [31:0] $end
$var wire 32 j a [31:0] $end
$upscope $end
$scope module pcmux $end
$var wire 32 k d0 [31:0] $end
$var wire 32 l d1 [31:0] $end
$var wire 1 6 s $end
$var wire 32 m y [31:0] $end
$var parameter 32 n WIDTH $end
$upscope $end
$scope module pcreg $end
$var wire 1 $ clk $end
$var wire 32 o d [31:0] $end
$var wire 1 % reset $end
$var parameter 32 p WIDTH $end
$var reg 32 q q [31:0] $end
$upscope $end
$scope module resultmux $end
$var wire 32 r d0 [31:0] $end
$var wire 32 s d1 [31:0] $end
$var wire 32 t d2 [31:0] $end
$var wire 2 u s [1:0] $end
$var wire 32 v y [31:0] $end
$var parameter 32 w WIDTH $end
$upscope $end
$scope module rf $end
$var wire 1 $ clk $end
$var wire 5 x ra1 [4:0] $end
$var wire 5 y ra2 [4:0] $end
$var wire 5 z wa [4:0] $end
$var wire 32 { wd [31:0] $end
$var wire 1 5 we $end
$var wire 32 | rd2 [31:0] $end
$var wire 32 } rd1 [31:0] $end
$var integer 32 ~ i [31:0] $end
$upscope $end
$scope module srcbmux $end
$var wire 32 !" d0 [31:0] $end
$var wire 32 "" d1 [31:0] $end
$var wire 1 : s $end
$var wire 32 #" y [31:0] $end
$var parameter 32 $" WIDTH $end
$upscope $end
$upscope $end
$upscope $end
$upscope $end
$upscope $end
$enddefinitions $end
$comment Show the parameter values. $end
$dumpall
b100000 $"
b100000 w
b100000 p
b100000 n
$end
#0
$dumpvars
b101 #"
b101 ""
b0 !"
b100000 ~
b0 }
b0 |
b101 {
b10 z
b101 y
b0 x
b101 v
b0 u
b100 t
bx s
b101 r
b0 q
b100 o
b100 m
b101 l
b100 k
b0 j
b101 i
b101 h
b0 g
b100 f
b100 e
b101 d
b10100000000000100010011 c
b0 b
b101 a
b0 `
b101 _
b0 ^
b101 ]
b101 \
b0 [
b100 Z
b100 Y
b101 X
b101 W
b0 V
b101 U
b0 T
b0 S
bx R
b10100000000000100010011 Q
b0 P
b0 O
b10010000100 N
b10 M
b0 L
b0 K
b10011 J
b0 I
b10 H
0G
b0 F
0E
b0 D
b10 C
0B
b0 A
b0 @
b10011 ?
0>
b0 =
b0 <
b101 ;
1:
b0 9
08
b0 7
06
15
b0 4
b0 3
02
bx 1
b10100000000000100010011 0
b0 /
b10100000000000100010011 .
b101 -
b0 ,
bx +
b101 *
b10100000000000100010011 )
b0 (
bx '
b0 &
1%
0$
b101 #
0"
b0 !
$end
#5000
1$
#10000
0$
#15000
1$
#20000
0$
#22000
0%
#25000
b1100 W
b1100 v
b1100 {
b1100 #
b1100 *
b1100 -
b1100 ;
b1100 ]
b1100 a
b1100 r
b1100 U
b1100 _
b1100 #"
b1100 y
b11 z
b1100 \
b1100 d
b1100 h
b1100 ""
b1000 Z
b1000 m
b1000 o
b110000000000000110010011 )
b110000000000000110010011 .
b110000000000000110010011 0
b110000000000000110010011 Q
b110000000000000110010011 c
b10000 X
b10000 i
b10000 l
b1000 Y
b1000 f
b1000 k
b1000 t
b100 (
b100 /
b100 7
b100 [
b100 g
b100 j
b100 q
1$
#30000
0$
#35000
b11 W
b11 v
b11 {
b11 #
b11 *
b11 -
b11 ;
b11 ]
b11 a
b11 r
b1100 V
b1100 `
b1100 }
b11111111111111111111111111110111 U
b11111111111111111111111111110111 _
b11111111111111111111111111110111 #"
1>
b11 x
b10111 y
b111 z
b11111111111111111111111111110111 \
b11111111111111111111111111110111 d
b11111111111111111111111111110111 h
b11111111111111111111111111110111 ""
b1100 Z
b1100 m
b1100 o
b11111111011100011000001110010011 )
b11111111011100011000001110010011 .
b11111111011100011000001110010011 0
b11111111011100011000001110010011 Q
b11111111011100011000001110010011 c
b11111111111111111111111111111111 X
b11111111111111111111111111111111 i
b11111111111111111111111111111111 l
b1100 Y
b1100 f
b1100 k
b1100 t
b1000 (
b1000 /
b1000 7
b1000 [
b1000 g
b1000 j
b1000 q
1$
#40000
0$
#45000
b111 W
b111 v
b111 {
b111 #
b111 *
b111 -
b111 ;
b111 ]
b111 a
b111 r
bx 9
bx A
bx L
bx P
bx b
0:
1G
b1xx00000100 N
b11 <
b11 D
b11 I
b11 O
b11 ^
b11 V
b11 `
b11 }
b101 !
b101 &
b101 ,
b101 3
b101 T
b101 |
b101 !"
b101 U
b101 _
b101 #"
b110011 ?
b110011 J
b110 =
b110 F
0>
b111 x
b10 y
b100 z
bx \
bx d
bx h
bx ""
b10000 Z
b10000 m
b10000 o
b1000111110001000110011 )
b1000111110001000110011 .
b1000111110001000110011 0
b1000111110001000110011 Q
b1000111110001000110011 c
bx X
bx i
bx l
b10000 Y
b10000 f
b10000 k
b10000 t
b1100 (
b1100 /
b1100 7
b1100 [
b1100 g
b1100 j
b1100 q
1$
#50000
0$
#55000
b100 W
b100 v
b100 {
b100 #
b100 *
b100 -
b100 ;
b100 ]
b100 a
b100 r
b111 U
b111 _
b111 #"
b10 <
b10 D
b10 I
b10 O
b10 ^
b1100 V
b1100 `
b1100 }
b111 !
b111 &
b111 ,
b111 3
b111 T
b111 |
b111 !"
b111 =
b111 F
b11 x
b100 y
b101 z
b10100 Z
b10100 m
b10100 o
b10000011111001010110011 )
b10000011111001010110011 .
b10000011111001010110011 0
b10000011111001010110011 Q
b10000011111001010110011 c
b10100 Y
b10100 f
b10100 k
b10100 t
b10000 (
b10000 /
b10000 7
b10000 [
b10000 g
b10000 j
b10000 q
1$
#60000
0$
#65000
b1011 W
b1011 v
b1011 {
b1011 #
b1011 *
b1011 -
b1011 ;
b1011 ]
b1011 a
b1011 r
b0 <
b0 D
b0 I
b0 O
b0 ^
b100 V
b100 `
b100 }
b0 =
b0 F
b101 x
b11000 Z
b11000 m
b11000 o
b10000101000001010110011 )
b10000101000001010110011 .
b10000101000001010110011 0
b10000101000001010110011 Q
b10000101000001010110011 c
b11000 Y
b11000 f
b11000 k
b11000 t
b10100 (
b10100 /
b10100 7
b10100 [
b10100 g
b10100 j
b10100 q
1$
#70000
0$
#75000
b1001000 X
b1001000 i
b1001000 l
b110000 \
b110000 d
b110000 h
b110000 ""
b1 <
b1 D
b1 I
b1 O
b1 ^
b1000 W
b1000 v
b1000 {
05
b10 9
b10 A
b10 L
b10 P
b10 b
1B
b1 C
b1 H
b1 M
b11 U
b11 _
b11 #"
b1000001010 N
b11 !
b11 &
b11 ,
b11 3
b11 T
b11 |
b11 !"
b1000 #
b1000 *
b1000 -
b1000 ;
b1000 ]
b1000 a
b1000 r
b1100011 ?
b1100011 J
b111 y
b10000 z
b1011 V
b1011 `
b1011 }
b11100 Z
b11100 m
b11100 o
b10011100101000100001100011 )
b10011100101000100001100011 .
b10011100101000100001100011 0
b10011100101000100001100011 Q
b10011100101000100001100011 c
b11100 Y
b11100 f
b11100 k
b11100 t
b11000 (
b11000 /
b11000 7
b11000 [
b11000 g
b11000 j
b11000 q
1$
#80000
0$
#85000
12
b0 W
b0 v
b0 {
b101 <
b101 D
b101 I
b101 O
b101 ^
15
bx 9
bx A
bx L
bx P
bx b
0B
b10 C
b10 H
b10 M
b0 #
b0 *
b0 -
b0 ;
b0 ]
b0 a
b0 r
b111 U
b111 _
b111 #"
b1xx00000100 N
b1100 V
b1100 `
b1100 }
b111 !
b111 &
b111 ,
b111 3
b111 T
b111 |
b111 !"
b110011 ?
b110011 J
b10 =
b10 F
b11 x
b100 y
b100 z
bx \
bx d
bx h
bx ""
b100000 Z
b100000 m
b100000 o
b10000011010001000110011 )
b10000011010001000110011 .
b10000011010001000110011 0
b10000011010001000110011 Q
b10000011010001000110011 c
bx X
bx i
bx l
b100000 Y
b100000 f
b100000 k
b100000 t
b11100 (
b11100 /
b11100 7
b11100 [
b11100 g
b11100 j
b11100 q
1$
#90000
0$
#95000
16
b101000 X
b101000 i
b101000 l
b1000 \
b1000 d
b1000 h
b1000 ""
05
b10 9
b10 A
b10 L
b10 P
b10 b
1B
b1 C
b1 H
b1 M
b1000001010 N
b1 <
b1 D
b1 I
b1 O
b1 ^
b0 V
b0 `
b0 }
b0 U
b0 _
b0 #"
b1100011 ?
b1100011 J
b0 =
b0 F
b100 x
b0 y
b1000 z
b0 !
b0 &
b0 ,
b0 3
b0 T
b0 |
b0 !"
b101000 Z
b101000 m
b101000 o
b100000010001100011 )
b100000010001100011 .
b100000010001100011 0
b100000010001100011 Q
b100000010001100011 c
b100100 Y
b100100 f
b100100 k
b100100 t
b100000 (
b100000 /
b100000 7
b100000 [
b100000 g
b100000 j
b100000 q
1$
#100000
0$
#105000
06
b1 W
b1 v
b1 {
b101 <
b101 D
b101 I
b101 O
b101 ^
15
bx 9
bx A
bx L
bx P
bx b
0B
b10 C
b10 H
b10 M
02
b1 #
b1 *
b1 -
b1 ;
b1 ]
b1 a
b1 r
b101 U
b101 _
b101 #"
b1xx00000100 N
b11 V
b11 `
b11 }
b101 !
b101 &
b101 ,
b101 3
b101 T
b101 |
b101 !"
b110011 ?
b110011 J
b10 =
b10 F
b111 x
b10 y
b100 z
bx \
bx d
bx h
bx ""
b101100 Z
b101100 m
b101100 o
b1000111010001000110011 )
b1000111010001000110011 .
b1000111010001000110011 0
b1000111010001000110011 Q
b1000111010001000110011 c
bx X
bx i
bx l
b101100 Y
b101100 f
b101100 k
b101100 t
b101000 (
b101000 /
b101000 7
b101000 [
b101000 g
b101000 j
b101000 q
1$
#110000
0$
#115000
b1100 W
b1100 v
b1100 {
b1100 #
b1100 *
b1100 -
b1100 ;
b1100 ]
b1100 a
b1100 r
b1011 U
b1011 _
b1011 #"
b0 <
b0 D
b0 I
b0 O
b0 ^
b1 V
b1 `
b1 }
b1011 !
b1011 &
b1011 ,
b1011 3
b1011 T
b1011 |
b1011 !"
b0 =
b0 F
b100 x
b101 y
b111 z
b110000 Z
b110000 m
b110000 o
b10100100000001110110011 )
b10100100000001110110011 .
b10100100000001110110011 0
b10100100000001110110011 Q
b10100100000001110110011 c
b110000 Y
b110000 f
b110000 k
b110000 t
b101100 (
b101100 /
b101100 7
b101100 [
b101100 g
b101100 j
b101100 q
1$
#120000
0$
#125000
b111 W
b111 v
b111 {
b1 <
b1 D
b1 I
b1 O
b1 ^
b111 #
b111 *
b111 -
b111 ;
b111 ]
b111 a
b111 r
b101 U
b101 _
b101 #"
1E
b1100 V
b1100 `
b1100 }
b101 !
b101 &
b101 ,
b101 3
b101 T
b101 |
b101 !"
1>
b111 x
b10 y
b110100 Z
b110100 m
b110100 o
b1000000001000111000001110110011 )
b1000000001000111000001110110011 .
b1000000001000111000001110110011 0
b1000000001000111000001110110011 Q
b1000000001000111000001110110011 c
b110100 Y
b110100 f
b110100 k
b110100 t
b110000 (
b110000 /
b110000 7
b110000 [
b110000 g
b110000 j
b110000 q
1$
#130000
0$
#135000
b10001000 X
b10001000 i
b10001000 l
b1010100 \
b1010100 d
b1010100 h
b1010100 ""
b1100000 W
b1100000 v
b1100000 {
05
b1 9
b1 A
b1 L
b1 P
b1 b
1:
1"
b0 C
b0 H
b0 M
02
b1010100 U
b1010100 _
b1010100 #"
b111000000 N
b0 <
b0 D
b0 I
b0 O
b0 ^
0E
b111 !
b111 &
b111 ,
b111 3
b111 T
b111 |
b111 !"
b1100000 #
b1100000 *
b1100000 -
b1100000 ;
b1100000 ]
b1100000 a
b1100000 r
b100011 ?
b100011 J
b10 =
b10 F
0>
b11 x
b111 y
b10100 z
b1100 V
b1100 `
b1100 }
b111000 Z
b111000 m
b111000 o
b100011100011010101000100011 )
b100011100011010101000100011 .
b100011100011010101000100011 0
b100011100011010101000100011 Q
b100011100011010101000100011 c
b111000 Y
b111000 f
b111000 k
b111000 t
b110100 (
b110100 /
b110100 7
b110100 [
b110100 g
b110100 j
b110100 q
1$
#140000
0$
#145000
b111 W
b111 v
b111 {
15
b0 9
b0 A
b0 L
b0 P
b0 b
0"
b1 4
b1 @
b1 K
b1 S
b1 u
b1100000 #
b1100000 *
b1100000 -
b1100000 ;
b1100000 ]
b1100000 a
b1100000 r
0G
b10010010000 N
b0 V
b0 `
b0 }
b0 !
b0 &
b0 ,
b0 3
b0 T
b0 |
b0 !"
b1100000 U
b1100000 _
b1100000 #"
b11 ?
b11 J
b0 x
b0 y
b10 z
b1100000 \
b1100000 d
b1100000 h
b1100000 ""
b111100 Z
b111100 m
b111100 o
b110000000000010000100000011 )
b110000000000010000100000011 .
b110000000000010000100000011 0
b110000000000010000100000011 Q
b110000000000010000100000011 c
b111 '
b111 +
b111 1
b111 R
b111 s
b10011000 X
b10011000 i
b10011000 l
b111100 Y
b111100 f
b111100 k
b111100 t
b111000 (
b111000 /
b111000 7
b111000 [
b111000 g
b111000 j
b111000 q
1$
#150000
0$
#155000
b10010 W
b10010 v
b10010 {
bx '
bx +
bx 1
bx R
bx s
bx 9
bx A
bx L
bx P
bx b
0:
b0 4
b0 @
b0 K
b0 S
b0 u
b10 C
b10 H
b10 M
b10010 #
b10010 *
b10010 -
b10010 ;
b10010 ]
b10010 a
b10010 r
1G
b1xx00000100 N
b111 V
b111 `
b111 }
b1011 !
b1011 &
b1011 ,
b1011 3
b1011 T
b1011 |
b1011 !"
b1011 U
b1011 _
b1011 #"
b110011 ?
b110011 J
b0 =
b0 F
b10 x
b101 y
b1001 z
bx \
bx d
bx h
bx ""
b1000000 Z
b1000000 m
b1000000 o
b10100010000010010110011 )
b10100010000010010110011 .
b10100010000010010110011 0
b10100010000010010110011 Q
b10100010000010010110011 c
bx X
bx i
bx l
b1000000 Y
b1000000 f
b1000000 k
b1000000 t
b111100 (
b111100 /
b111100 7
b111100 [
b111100 g
b111100 j
b111100 q
1$
#160000
0$
#165000
b1000100 W
b1000100 v
b1000100 {
b1001000 X
b1001000 i
b1001000 l
b1000 \
b1000 d
b1000 h
b1000 ""
16
b11 9
b11 A
b11 L
b11 P
b11 b
b10 4
b10 @
b10 K
b10 S
b10 u
b0 C
b0 H
b0 M
18
12
b0 #
b0 *
b0 -
b0 ;
b0 ]
b0 a
b0 r
b0 U
b0 _
b0 #"
b11100100001 N
b0 V
b0 `
b0 }
b0 !
b0 &
b0 ,
b0 3
b0 T
b0 |
b0 !"
b1101111 ?
b1101111 J
b0 x
b1000 y
b11 z
b1001000 Z
b1001000 m
b1001000 o
b100000000000000111101111 )
b100000000000000111101111 .
b100000000000000111101111 0
b100000000000000111101111 Q
b100000000000000111101111 c
b1000100 Y
b1000100 f
b1000100 k
b1000100 t
b1000000 (
b1000000 /
b1000000 7
b1000000 [
b1000000 g
b1000000 j
b1000000 q
1$
#170000
0$
#175000
06
bx 9
bx A
bx L
bx P
bx b
b0 4
b0 @
b0 K
b0 S
b0 u
b10 C
b10 H
b10 M
08
02
b11001 #
b11001 *
b11001 -
b11001 ;
b11001 ]
b11001 a
b11001 r
b10010 U
b10010 _
b10010 #"
b1xx00000100 N
b111 V
b111 `
b111 }
b10010 !
b10010 &
b10010 ,
b10010 3
b10010 T
b10010 |
b10010 !"
b110011 ?
b110011 J
b10 x
b1001 y
b10 z
bx \
bx d
bx h
bx ""
b1001100 Z
b1001100 m
b1001100 o
b11001 W
b11001 v
b11001 {
b100100010000000100110011 )
b100100010000000100110011 .
b100100010000000100110011 0
b100100010000000100110011 Q
b100100010000000100110011 c
bx X
bx i
bx l
b1001100 Y
b1001100 f
b1001100 k
b1001100 t
b1001000 (
b1001000 /
b1001000 7
b1001000 [
b1001000 g
b1001000 j
b1001000 q
1$
#180000
0$
#185000
b1101100 X
b1101100 i
b1101100 l
b100000 \
b100000 d
b100000 h
b100000 ""
b1100100 W
b1100100 v
b1100100 {
05
b1 9
b1 A
b1 L
b1 P
b1 b
1:
1"
b0 C
b0 H
b0 M
02
b100000 U
b100000 _
b100000 #"
b111000000 N
b0 <
b0 D
b0 I
b0 O
b0 ^
b11001 !
b11001 &
b11001 ,
b11001 3
b11001 T
b11001 |
b11001 !"
b1100100 #
b1100100 *
b1100100 -
b1100100 ;
b1100100 ]
b1100100 a
b1100100 r
b100011 ?
b100011 J
b10 =
b10 F
b11 x
b10 y
b0 z
b1000100 V
b1000100 `
b1000100 }
b1010000 Z
b1010000 m
b1010000 o
b10001000011010000000100011 )
b10001000011010000000100011 .
b10001000011010000000100011 0
b10001000011010000000100011 Q
b10001000011010000000100011 c
b1010000 Y
b1010000 f
b1010000 k
b1010000 t
b1001100 (
b1001100 /
b1001100 7
b1001100 [
b1001100 g
b1001100 j
b1001100 q
1$
